Beginning Training Episodes...
----------HyperParameters Used----------
----------Batch Size  :32
----------LearningRate:0.000100
----------Discount(Gamma)    :0.990000
----------Epsilon Min :0.010000
----------Epsilon Max :1.000000
----------Epsilon Decau :0.995000
----------Min Memory Length    :64
----------Max Memory Length :65536
episode: 0, score: 20.0, average_score : 20.0, number of frames: 20, epsilon: 0.995
episode: 1, score: 23.0, average_score : 21.5, number of frames: 23, epsilon: 0.990025
episode: 2, score: 64.0, average_score : 35.666666666666664, number of frames: 64, epsilon: 0.985074875
episode: 3, score: 20.0, average_score : 31.75, number of frames: 20, epsilon: 0.9801495006250001
episode: 4, score: 35.0, average_score : 32.4, number of frames: 35, epsilon: 0.9752487531218751
episode: 5, score: 19.0, average_score : 30.166666666666668, number of frames: 19, epsilon: 0.9703725093562657
episode: 6, score: 27.0, average_score : 29.714285714285715, number of frames: 27, epsilon: 0.9655206468094844
episode: 7, score: 27.0, average_score : 29.375, number of frames: 27, epsilon: 0.960693043575437
episode: 8, score: 17.0, average_score : 28.0, number of frames: 17, epsilon: 0.9558895783575597
episode: 9, score: 13.0, average_score : 26.5, number of frames: 13, epsilon: 0.9511101304657719
episode: 10, score: 15.0, average_score : 25.454545454545453, number of frames: 15, epsilon: 0.946354579813443
episode: 11, score: 12.0, average_score : 24.333333333333332, number of frames: 12, epsilon: 0.9416228069143757
episode: 12, score: 36.0, average_score : 25.23076923076923, number of frames: 36, epsilon: 0.9369146928798039
episode: 13, score: 14.0, average_score : 24.428571428571427, number of frames: 14, epsilon: 0.9322301194154049
episode: 14, score: 36.0, average_score : 25.2, number of frames: 36, epsilon: 0.9275689688183278
episode: 15, score: 31.0, average_score : 25.5625, number of frames: 31, epsilon: 0.9229311239742362
episode: 16, score: 13.0, average_score : 24.823529411764707, number of frames: 13, epsilon: 0.918316468354365
episode: 17, score: 19.0, average_score : 24.5, number of frames: 19, epsilon: 0.9137248860125932
episode: 18, score: 13.0, average_score : 23.894736842105264, number of frames: 13, epsilon: 0.9091562615825302
episode: 19, score: 22.0, average_score : 23.8, number of frames: 22, epsilon: 0.9046104802746175
episode: 20, score: 17.0, average_score : 23.476190476190474, number of frames: 17, epsilon: 0.9000874278732445
episode: 21, score: 36.0, average_score : 24.045454545454547, number of frames: 36, epsilon: 0.8955869907338783
episode: 22, score: 20.0, average_score : 23.869565217391305, number of frames: 20, epsilon: 0.8911090557802088
episode: 23, score: 19.0, average_score : 23.666666666666668, number of frames: 19, epsilon: 0.8866535105013078
episode: 24, score: 12.0, average_score : 23.2, number of frames: 12, epsilon: 0.8822202429488013
episode: 25, score: 16.0, average_score : 22.923076923076923, number of frames: 16, epsilon: 0.8778091417340573
episode: 26, score: 15.0, average_score : 22.62962962962963, number of frames: 15, epsilon: 0.8734200960253871
episode: 27, score: 10.0, average_score : 22.178571428571427, number of frames: 10, epsilon: 0.8690529955452602
episode: 28, score: 13.0, average_score : 21.862068965517242, number of frames: 13, epsilon: 0.8647077305675338
episode: 29, score: 11.0, average_score : 21.5, number of frames: 11, epsilon: 0.8603841919146962
episode: 30, score: 21.0, average_score : 21.483870967741936, number of frames: 21, epsilon: 0.8560822709551227
episode: 31, score: 13.0, average_score : 21.21875, number of frames: 13, epsilon: 0.851801859600347
episode: 32, score: 9.0, average_score : 20.848484848484848, number of frames: 9, epsilon: 0.8475428503023453
episode: 33, score: 13.0, average_score : 20.61764705882353, number of frames: 13, epsilon: 0.8433051360508336
episode: 34, score: 27.0, average_score : 20.8, number of frames: 27, epsilon: 0.8390886103705794
episode: 35, score: 14.0, average_score : 20.61111111111111, number of frames: 14, epsilon: 0.8348931673187264
episode: 36, score: 13.0, average_score : 20.405405405405407, number of frames: 13, epsilon: 0.8307187014821328
episode: 37, score: 20.0, average_score : 20.394736842105264, number of frames: 20, epsilon: 0.8265651079747222
episode: 38, score: 12.0, average_score : 20.17948717948718, number of frames: 12, epsilon: 0.8224322824348486
episode: 39, score: 8.0, average_score : 19.875, number of frames: 8, epsilon: 0.8183201210226743
episode: 40, score: 14.0, average_score : 19.73170731707317, number of frames: 14, epsilon: 0.8142285204175609
episode: 41, score: 11.0, average_score : 19.523809523809526, number of frames: 11, epsilon: 0.810157377815473
episode: 42, score: 9.0, average_score : 19.27906976744186, number of frames: 9, epsilon: 0.8061065909263957
episode: 43, score: 31.0, average_score : 19.545454545454547, number of frames: 31, epsilon: 0.8020760579717637
episode: 44, score: 10.0, average_score : 19.333333333333332, number of frames: 10, epsilon: 0.798065677681905
episode: 45, score: 17.0, average_score : 19.282608695652176, number of frames: 17, epsilon: 0.7940753492934954
episode: 46, score: 12.0, average_score : 19.127659574468087, number of frames: 12, epsilon: 0.7901049725470279
episode: 47, score: 10.0, average_score : 18.9375, number of frames: 10, epsilon: 0.7861544476842928
episode: 48, score: 18.0, average_score : 18.918367346938776, number of frames: 18, epsilon: 0.7822236754458713
episode: 49, score: 28.0, average_score : 19.1, number of frames: 28, epsilon: 0.778312557068642
episode: 50, score: 9.0, average_score : 18.901960784313726, number of frames: 9, epsilon: 0.7744209942832988
episode: 51, score: 15.0, average_score : 18.826923076923077, number of frames: 15, epsilon: 0.7705488893118823
episode: 52, score: 11.0, average_score : 18.67924528301887, number of frames: 11, epsilon: 0.7666961448653229
episode: 53, score: 15.0, average_score : 18.61111111111111, number of frames: 15, epsilon: 0.7628626641409962
episode: 54, score: 20.0, average_score : 18.636363636363637, number of frames: 20, epsilon: 0.7590483508202912
episode: 55, score: 17.0, average_score : 18.607142857142858, number of frames: 17, epsilon: 0.7552531090661897
episode: 56, score: 13.0, average_score : 18.50877192982456, number of frames: 13, epsilon: 0.7514768435208588
episode: 57, score: 12.0, average_score : 18.396551724137932, number of frames: 12, epsilon: 0.7477194593032545
episode: 58, score: 16.0, average_score : 18.35593220338983, number of frames: 16, epsilon: 0.7439808620067382
episode: 59, score: 19.0, average_score : 18.366666666666667, number of frames: 19, epsilon: 0.7402609576967045
episode: 60, score: 18.0, average_score : 18.360655737704917, number of frames: 18, epsilon: 0.736559652908221
episode: 61, score: 12.0, average_score : 18.258064516129032, number of frames: 12, epsilon: 0.7328768546436799
episode: 62, score: 20.0, average_score : 18.285714285714285, number of frames: 20, epsilon: 0.7292124703704616
episode: 63, score: 10.0, average_score : 18.15625, number of frames: 10, epsilon: 0.7255664080186093
episode: 64, score: 21.0, average_score : 18.2, number of frames: 21, epsilon: 0.7219385759785162
episode: 65, score: 10.0, average_score : 18.075757575757574, number of frames: 10, epsilon: 0.7183288830986236
episode: 66, score: 12.0, average_score : 17.98507462686567, number of frames: 12, epsilon: 0.7147372386831305
episode: 67, score: 12.0, average_score : 17.897058823529413, number of frames: 12, epsilon: 0.7111635524897149
episode: 68, score: 10.0, average_score : 17.782608695652176, number of frames: 10, epsilon: 0.7076077347272662
episode: 69, score: 25.0, average_score : 17.885714285714286, number of frames: 25, epsilon: 0.7040696960536299
episode: 70, score: 15.0, average_score : 17.845070422535212, number of frames: 15, epsilon: 0.7005493475733617
episode: 71, score: 12.0, average_score : 17.76388888888889, number of frames: 12, epsilon: 0.697046600835495
episode: 72, score: 13.0, average_score : 17.698630136986303, number of frames: 13, epsilon: 0.6935613678313175
episode: 73, score: 11.0, average_score : 17.60810810810811, number of frames: 11, epsilon: 0.6900935609921609
episode: 74, score: 30.0, average_score : 17.773333333333333, number of frames: 30, epsilon: 0.6866430931872001
episode: 75, score: 13.0, average_score : 17.710526315789473, number of frames: 13, epsilon: 0.6832098777212641
episode: 76, score: 12.0, average_score : 17.636363636363637, number of frames: 12, epsilon: 0.6797938283326578
episode: 77, score: 20.0, average_score : 17.666666666666668, number of frames: 20, epsilon: 0.6763948591909945
episode: 78, score: 14.0, average_score : 17.620253164556964, number of frames: 14, epsilon: 0.6730128848950395
episode: 79, score: 14.0, average_score : 17.575, number of frames: 14, epsilon: 0.6696478204705644
episode: 80, score: 9.0, average_score : 17.469135802469136, number of frames: 9, epsilon: 0.6662995813682115
episode: 81, score: 15.0, average_score : 17.4390243902439, number of frames: 15, epsilon: 0.6629680834613705
episode: 82, score: 16.0, average_score : 17.42168674698795, number of frames: 16, epsilon: 0.6596532430440636
episode: 83, score: 18.0, average_score : 17.428571428571427, number of frames: 18, epsilon: 0.6563549768288433
episode: 84, score: 13.0, average_score : 17.376470588235293, number of frames: 13, epsilon: 0.653073201944699
episode: 85, score: 16.0, average_score : 17.36046511627907, number of frames: 16, epsilon: 0.6498078359349755
episode: 86, score: 13.0, average_score : 17.310344827586206, number of frames: 13, epsilon: 0.6465587967553006
episode: 87, score: 16.0, average_score : 17.295454545454547, number of frames: 16, epsilon: 0.6433260027715241
episode: 88, score: 11.0, average_score : 17.224719101123597, number of frames: 11, epsilon: 0.6401093727576664
episode: 89, score: 14.0, average_score : 17.18888888888889, number of frames: 14, epsilon: 0.6369088258938781
episode: 90, score: 10.0, average_score : 17.10989010989011, number of frames: 10, epsilon: 0.6337242817644086
episode: 91, score: 14.0, average_score : 17.07608695652174, number of frames: 14, epsilon: 0.6305556603555866
episode: 92, score: 16.0, average_score : 17.06451612903226, number of frames: 16, epsilon: 0.6274028820538087
episode: 93, score: 13.0, average_score : 17.02127659574468, number of frames: 13, epsilon: 0.6242658676435396
episode: 94, score: 16.0, average_score : 17.010526315789473, number of frames: 16, epsilon: 0.6211445383053219
episode: 95, score: 18.0, average_score : 17.020833333333332, number of frames: 18, epsilon: 0.6180388156137953
episode: 96, score: 14.0, average_score : 16.989690721649485, number of frames: 14, epsilon: 0.6149486215357263
episode: 97, score: 17.0, average_score : 16.989795918367346, number of frames: 17, epsilon: 0.6118738784280476
episode: 98, score: 9.0, average_score : 16.90909090909091, number of frames: 9, epsilon: 0.6088145090359074
episode: 99, score: 19.0, average_score : 16.93, number of frames: 19, epsilon: 0.6057704364907278
episode: 100, score: 8.0, average_score : 16.81, number of frames: 8, epsilon: 0.6027415843082742
episode: 101, score: 13.0, average_score : 16.71, number of frames: 13, epsilon: 0.5997278763867329
episode: 102, score: 16.0, average_score : 16.23, number of frames: 16, epsilon: 0.5967292370047992
episode: 103, score: 13.0, average_score : 16.16, number of frames: 13, epsilon: 0.5937455908197752
episode: 104, score: 13.0, average_score : 15.94, number of frames: 13, epsilon: 0.5907768628656763
episode: 105, score: 18.0, average_score : 15.93, number of frames: 18, epsilon: 0.5878229785513479
episode: 106, score: 14.0, average_score : 15.8, number of frames: 14, epsilon: 0.5848838636585911
episode: 107, score: 22.0, average_score : 15.75, number of frames: 22, epsilon: 0.5819594443402982
episode: 108, score: 18.0, average_score : 15.76, number of frames: 18, epsilon: 0.5790496471185967
episode: 109, score: 18.0, average_score : 15.81, number of frames: 18, epsilon: 0.5761543988830038
episode: 110, score: 10.0, average_score : 15.76, number of frames: 10, epsilon: 0.5732736268885887
episode: 111, score: 16.0, average_score : 15.8, number of frames: 16, epsilon: 0.5704072587541458
episode: 112, score: 13.0, average_score : 15.57, number of frames: 13, epsilon: 0.567555222460375
episode: 113, score: 10.0, average_score : 15.53, number of frames: 10, epsilon: 0.5647174463480732
episode: 114, score: 22.0, average_score : 15.39, number of frames: 22, epsilon: 0.5618938591163328
episode: 115, score: 10.0, average_score : 15.18, number of frames: 10, epsilon: 0.5590843898207511
episode: 116, score: 8.0, average_score : 15.13, number of frames: 8, epsilon: 0.5562889678716474
episode: 117, score: 20.0, average_score : 15.14, number of frames: 20, epsilon: 0.5535075230322891
episode: 118, score: 17.0, average_score : 15.18, number of frames: 17, epsilon: 0.5507399854171277
episode: 119, score: 10.0, average_score : 15.06, number of frames: 10, epsilon: 0.547986285490042
episode: 120, score: 10.0, average_score : 14.99, number of frames: 10, epsilon: 0.5452463540625918
episode: 121, score: 23.0, average_score : 14.86, number of frames: 23, epsilon: 0.5425201222922789
episode: 122, score: 12.0, average_score : 14.78, number of frames: 12, epsilon: 0.5398075216808175
episode: 123, score: 11.0, average_score : 14.7, number of frames: 11, epsilon: 0.5371084840724134
episode: 124, score: 24.0, average_score : 14.82, number of frames: 24, epsilon: 0.5344229416520513
episode: 125, score: 9.0, average_score : 14.75, number of frames: 9, epsilon: 0.531750826943791
episode: 126, score: 13.0, average_score : 14.73, number of frames: 13, epsilon: 0.5290920728090721
episode: 127, score: 13.0, average_score : 14.76, number of frames: 13, epsilon: 0.5264466124450268
episode: 128, score: 22.0, average_score : 14.85, number of frames: 22, epsilon: 0.5238143793828016
episode: 129, score: 9.0, average_score : 14.83, number of frames: 9, epsilon: 0.5211953074858876
episode: 130, score: 11.0, average_score : 14.73, number of frames: 11, epsilon: 0.5185893309484582
episode: 131, score: 16.0, average_score : 14.76, number of frames: 16, epsilon: 0.5159963842937159
episode: 132, score: 16.0, average_score : 14.83, number of frames: 16, epsilon: 0.5134164023722473
episode: 133, score: 9.0, average_score : 14.79, number of frames: 9, epsilon: 0.510849320360386
episode: 134, score: 11.0, average_score : 14.63, number of frames: 11, epsilon: 0.5082950737585841
episode: 135, score: 10.0, average_score : 14.59, number of frames: 10, epsilon: 0.5057535983897912
episode: 136, score: 12.0, average_score : 14.58, number of frames: 12, epsilon: 0.5032248303978422
episode: 137, score: 14.0, average_score : 14.52, number of frames: 14, epsilon: 0.500708706245853
episode: 138, score: 15.0, average_score : 14.55, number of frames: 15, epsilon: 0.4982051627146237
episode: 139, score: 10.0, average_score : 14.57, number of frames: 10, epsilon: 0.49571413690105054
episode: 140, score: 14.0, average_score : 14.57, number of frames: 14, epsilon: 0.4932355662165453
episode: 141, score: 14.0, average_score : 14.6, number of frames: 14, epsilon: 0.4907693883854626
episode: 142, score: 9.0, average_score : 14.6, number of frames: 9, epsilon: 0.4883155414435353
episode: 143, score: 15.0, average_score : 14.44, number of frames: 15, epsilon: 0.4858739637363176
episode: 144, score: 10.0, average_score : 14.44, number of frames: 10, epsilon: 0.483444593917636
episode: 145, score: 9.0, average_score : 14.36, number of frames: 9, epsilon: 0.4810273709480478
episode: 146, score: 22.0, average_score : 14.46, number of frames: 22, epsilon: 0.47862223409330756
episode: 147, score: 17.0, average_score : 14.53, number of frames: 17, epsilon: 0.47622912292284103
episode: 148, score: 8.0, average_score : 14.43, number of frames: 8, epsilon: 0.4738479773082268
episode: 149, score: 10.0, average_score : 14.25, number of frames: 10, epsilon: 0.47147873742168567
episode: 150, score: 13.0, average_score : 14.29, number of frames: 13, epsilon: 0.46912134373457726
episode: 151, score: 19.0, average_score : 14.33, number of frames: 19, epsilon: 0.46677573701590436
episode: 152, score: 11.0, average_score : 14.33, number of frames: 11, epsilon: 0.46444185833082485
episode: 153, score: 11.0, average_score : 14.29, number of frames: 11, epsilon: 0.46211964903917074
episode: 154, score: 10.0, average_score : 14.19, number of frames: 10, epsilon: 0.4598090507939749
episode: 155, score: 10.0, average_score : 14.12, number of frames: 10, epsilon: 0.457510005540005
episode: 156, score: 10.0, average_score : 14.09, number of frames: 10, epsilon: 0.45522245551230495
episode: 157, score: 12.0, average_score : 14.09, number of frames: 12, epsilon: 0.4529463432347434
episode: 158, score: 11.0, average_score : 14.04, number of frames: 11, epsilon: 0.4506816115185697
episode: 159, score: 10.0, average_score : 13.95, number of frames: 10, epsilon: 0.4484282034609769
episode: 160, score: 12.0, average_score : 13.89, number of frames: 12, epsilon: 0.446186062443672
episode: 161, score: 10.0, average_score : 13.87, number of frames: 10, epsilon: 0.4439551321314536
episode: 162, score: 14.0, average_score : 13.81, number of frames: 14, epsilon: 0.4417353564707963
episode: 163, score: 12.0, average_score : 13.83, number of frames: 12, epsilon: 0.43952667968844233
episode: 164, score: 12.0, average_score : 13.74, number of frames: 12, epsilon: 0.43732904629000013
episode: 165, score: 11.0, average_score : 13.75, number of frames: 11, epsilon: 0.4351424010585501
episode: 166, score: 11.0, average_score : 13.74, number of frames: 11, epsilon: 0.43296668905325736
episode: 167, score: 12.0, average_score : 13.74, number of frames: 12, epsilon: 0.43080185560799106
episode: 168, score: 11.0, average_score : 13.75, number of frames: 11, epsilon: 0.4286478463299511
episode: 169, score: 10.0, average_score : 13.6, number of frames: 10, epsilon: 0.42650460709830135
episode: 170, score: 16.0, average_score : 13.61, number of frames: 16, epsilon: 0.42437208406280985
episode: 171, score: 13.0, average_score : 13.62, number of frames: 13, epsilon: 0.4222502236424958
episode: 172, score: 10.0, average_score : 13.59, number of frames: 10, epsilon: 0.42013897252428334
episode: 173, score: 18.0, average_score : 13.66, number of frames: 18, epsilon: 0.4180382776616619
episode: 174, score: 12.0, average_score : 13.48, number of frames: 12, epsilon: 0.4159480862733536
episode: 175, score: 9.0, average_score : 13.44, number of frames: 9, epsilon: 0.41386834584198684
episode: 176, score: 10.0, average_score : 13.42, number of frames: 10, epsilon: 0.4117990041127769
episode: 177, score: 12.0, average_score : 13.34, number of frames: 12, epsilon: 0.40974000909221303
episode: 178, score: 9.0, average_score : 13.29, number of frames: 9, epsilon: 0.40769130904675194
episode: 179, score: 13.0, average_score : 13.28, number of frames: 13, epsilon: 0.40565285250151817
episode: 180, score: 10.0, average_score : 13.29, number of frames: 10, epsilon: 0.4036245882390106
episode: 181, score: 12.0, average_score : 13.26, number of frames: 12, epsilon: 0.4016064652978155
episode: 182, score: 12.0, average_score : 13.22, number of frames: 12, epsilon: 0.3995984329713264
episode: 183, score: 10.0, average_score : 13.14, number of frames: 10, epsilon: 0.3976004408064698
episode: 184, score: 8.0, average_score : 13.09, number of frames: 8, epsilon: 0.39561243860243744
episode: 185, score: 17.0, average_score : 13.1, number of frames: 17, epsilon: 0.3936343764094253
episode: 186, score: 15.0, average_score : 13.12, number of frames: 15, epsilon: 0.39166620452737816
episode: 187, score: 14.0, average_score : 13.1, number of frames: 14, epsilon: 0.3897078735047413
episode: 188, score: 11.0, average_score : 13.1, number of frames: 11, epsilon: 0.3877593341372176
episode: 189, score: 8.0, average_score : 13.04, number of frames: 8, epsilon: 0.3858205374665315
episode: 190, score: 11.0, average_score : 13.05, number of frames: 11, epsilon: 0.38389143477919885
episode: 191, score: 11.0, average_score : 13.02, number of frames: 11, epsilon: 0.3819719776053028
episode: 192, score: 10.0, average_score : 12.96, number of frames: 10, epsilon: 0.3800621177172763
episode: 193, score: 19.0, average_score : 13.02, number of frames: 19, epsilon: 0.37816180712868996
episode: 194, score: 12.0, average_score : 12.98, number of frames: 12, epsilon: 0.37627099809304654
episode: 195, score: 8.0, average_score : 12.88, number of frames: 8, epsilon: 0.3743896431025813
episode: 196, score: 13.0, average_score : 12.87, number of frames: 13, epsilon: 0.37251769488706843
episode: 197, score: 20.0, average_score : 12.9, number of frames: 20, epsilon: 0.3706551064126331
episode: 198, score: 10.0, average_score : 12.91, number of frames: 10, epsilon: 0.36880183088056995
episode: 199, score: 9.0, average_score : 12.81, number of frames: 9, epsilon: 0.3669578217261671
episode: 200, score: 10.0, average_score : 12.83, number of frames: 10, epsilon: 0.36512303261753626
episode: 201, score: 14.0, average_score : 12.84, number of frames: 14, epsilon: 0.3632974174544486
episode: 202, score: 12.0, average_score : 12.8, number of frames: 12, epsilon: 0.3614809303671764
episode: 203, score: 18.0, average_score : 12.85, number of frames: 18, epsilon: 0.3596735257153405
episode: 204, score: 68.0, average_score : 13.4, number of frames: 68, epsilon: 0.3578751580867638
episode: 205, score: 61.0, average_score : 13.83, number of frames: 61, epsilon: 0.35608578229633
episode: 206, score: 72.0, average_score : 14.41, number of frames: 72, epsilon: 0.3543053533848483
episode: 207, score: 67.0, average_score : 14.86, number of frames: 67, epsilon: 0.35253382661792404
episode: 208, score: 104.0, average_score : 15.72, number of frames: 104, epsilon: 0.3507711574848344
episode: 209, score: 153.0, average_score : 17.07, number of frames: 153, epsilon: 0.34901730169741024
episode: 210, score: 176.0, average_score : 18.73, number of frames: 176, epsilon: 0.3472722151889232
episode: 211, score: 88.0, average_score : 19.45, number of frames: 88, epsilon: 0.3455358541129786
episode: 212, score: 221.0, average_score : 21.53, number of frames: 221, epsilon: 0.3438081748424137
episode: 213, score: 209.0, average_score : 23.52, number of frames: 209, epsilon: 0.3420891339682016
episode: 214, score: 161.0, average_score : 24.91, number of frames: 161, epsilon: 0.3403786882983606
episode: 215, score: 135.0, average_score : 26.16, number of frames: 135, epsilon: 0.3386767948568688
episode: 216, score: 155.0, average_score : 27.63, number of frames: 155, epsilon: 0.33698341088258443
episode: 217, score: 230.0, average_score : 29.73, number of frames: 230, epsilon: 0.3352984938281715
episode: 218, score: 143.0, average_score : 30.99, number of frames: 143, epsilon: 0.33362200135903064
episode: 219, score: 158.0, average_score : 32.47, number of frames: 158, epsilon: 0.33195389135223546
episode: 220, score: 30.0, average_score : 32.67, number of frames: 30, epsilon: 0.3302941218954743
episode: 221, score: 83.0, average_score : 33.27, number of frames: 83, epsilon: 0.32864265128599696
episode: 222, score: 123.0, average_score : 34.38, number of frames: 123, epsilon: 0.326999438029567
episode: 223, score: 86.0, average_score : 35.13, number of frames: 86, epsilon: 0.3253644408394192
episode: 224, score: 29.0, average_score : 35.18, number of frames: 29, epsilon: 0.3237376186352221
episode: 225, score: 121.0, average_score : 36.3, number of frames: 121, epsilon: 0.322118930542046
episode: 226, score: 272.0, average_score : 38.89, number of frames: 272, epsilon: 0.32050833588933575
episode: 227, score: 107.0, average_score : 39.83, number of frames: 107, epsilon: 0.31890579420988907
episode: 228, score: 128.0, average_score : 40.89, number of frames: 128, epsilon: 0.3173112652388396
episode: 229, score: 141.0, average_score : 42.21, number of frames: 141, epsilon: 0.3157247089126454
episode: 230, score: 166.0, average_score : 43.76, number of frames: 166, epsilon: 0.3141460853680822
episode: 231, score: 125.0, average_score : 44.85, number of frames: 125, epsilon: 0.3125753549412418
episode: 232, score: 177.0, average_score : 46.46, number of frames: 177, epsilon: 0.31101247816653554
episode: 233, score: 248.0, average_score : 48.85, number of frames: 248, epsilon: 0.30945741577570285
episode: 234, score: 114.0, average_score : 49.88, number of frames: 114, epsilon: 0.3079101286968243
episode: 235, score: 119.0, average_score : 50.97, number of frames: 119, epsilon: 0.3063705780533402
episode: 236, score: 214.0, average_score : 52.99, number of frames: 214, epsilon: 0.30483872516307353
episode: 237, score: 296.0, average_score : 55.81, number of frames: 296, epsilon: 0.3033145315372582
episode: 238, score: 219.0, average_score : 57.85, number of frames: 219, epsilon: 0.3017979588795719
episode: 239, score: 142.0, average_score : 59.17, number of frames: 142, epsilon: 0.30028896908517405
episode: 240, score: 202.0, average_score : 61.05, number of frames: 202, epsilon: 0.2987875242397482
episode: 241, score: 426.0, average_score : 65.17, number of frames: 426, epsilon: 0.29729358661854943
episode: 242, score: 231.0, average_score : 67.39, number of frames: 231, epsilon: 0.29580711868545667
episode: 243, score: 186.0, average_score : 69.1, number of frames: 186, epsilon: 0.2943280830920294
episode: 244, score: 52.0, average_score : 69.52, number of frames: 52, epsilon: 0.29285644267656924
episode: 245, score: 163.0, average_score : 71.06, number of frames: 163, epsilon: 0.2913921604631864
episode: 246, score: 273.0, average_score : 73.57, number of frames: 273, epsilon: 0.28993519966087045
episode: 247, score: 374.0, average_score : 77.14, number of frames: 374, epsilon: 0.2884855236625661
episode: 248, score: 302.0, average_score : 80.08, number of frames: 302, epsilon: 0.28704309604425327
episode: 249, score: 217.0, average_score : 82.15, number of frames: 217, epsilon: 0.285607880564032
episode: 250, score: 289.0, average_score : 84.91, number of frames: 289, epsilon: 0.28417984116121187
episode: 251, score: 323.0, average_score : 87.95, number of frames: 323, epsilon: 0.2827589419554058
episode: 252, score: 191.0, average_score : 89.75, number of frames: 191, epsilon: 0.28134514724562876
episode: 253, score: 261.0, average_score : 92.25, number of frames: 261, epsilon: 0.2799384215094006
episode: 254, score: 286.0, average_score : 95.01, number of frames: 286, epsilon: 0.27853872940185365
episode: 255, score: 267.0, average_score : 97.58, number of frames: 267, epsilon: 0.27714603575484437
episode: 256, score: 218.0, average_score : 99.66, number of frames: 218, epsilon: 0.2757603055760701
episode: 257, score: 238.0, average_score : 101.92, number of frames: 238, epsilon: 0.2743815040481898
episode: 258, score: 462.0, average_score : 106.43, number of frames: 462, epsilon: 0.2730095965279488
episode: 259, score: 280.0, average_score : 109.13, number of frames: 280, epsilon: 0.27164454854530906
episode: 260, score: 290.0, average_score : 111.91, number of frames: 290, epsilon: 0.2702863258025825
episode: 261, score: 314.0, average_score : 114.95, number of frames: 314, epsilon: 0.2689348941735696
episode: 262, score: 309.0, average_score : 117.9, number of frames: 309, epsilon: 0.26759021970270175
episode: 263, score: 301.0, average_score : 120.79, number of frames: 301, epsilon: 0.2662522686041882
episode: 264, score: 260.0, average_score : 123.27, number of frames: 260, epsilon: 0.2649210072611673
episode: 265, score: 226.0, average_score : 125.42, number of frames: 226, epsilon: 0.26359640222486147
episode: 266, score: 442.0, average_score : 129.73, number of frames: 442, epsilon: 0.26227842021373715
episode: 267, score: 284.0, average_score : 132.45, number of frames: 284, epsilon: 0.2609670281126685
episode: 268, score: 343.0, average_score : 135.77, number of frames: 343, epsilon: 0.25966219297210513
episode: 269, score: 218.0, average_score : 137.85, number of frames: 218, epsilon: 0.2583638820072446
episode: 270, score: 360.0, average_score : 141.29, number of frames: 360, epsilon: 0.2570720625972084
episode: 271, score: 250.0, average_score : 143.66, number of frames: 250, epsilon: 0.25578670228422234
episode: 272, score: 328.0, average_score : 146.84, number of frames: 328, epsilon: 0.25450776877280124
episode: 273, score: 268.0, average_score : 149.34, number of frames: 268, epsilon: 0.2532352299289372
episode: 274, score: 301.0, average_score : 152.23, number of frames: 301, epsilon: 0.2519690537792925
episode: 275, score: 234.0, average_score : 154.48, number of frames: 234, epsilon: 0.2507092085103961
episode: 276, score: 215.0, average_score : 156.53, number of frames: 215, epsilon: 0.2494556624678441
episode: 277, score: 325.0, average_score : 159.66, number of frames: 325, epsilon: 0.24820838415550486
episode: 278, score: 420.0, average_score : 163.77, number of frames: 420, epsilon: 0.24696734223472733
episode: 279, score: 194.0, average_score : 165.58, number of frames: 194, epsilon: 0.2457325055235537
episode: 280, score: 426.0, average_score : 169.74, number of frames: 426, epsilon: 0.24450384299593592
episode: 281, score: 262.0, average_score : 172.24, number of frames: 262, epsilon: 0.24328132378095624
episode: 282, score: 256.0, average_score : 174.68, number of frames: 256, epsilon: 0.24206491716205145
episode: 283, score: 244.0, average_score : 177.02, number of frames: 244, epsilon: 0.2408545925762412
episode: 284, score: 291.0, average_score : 179.85, number of frames: 291, epsilon: 0.23965031961336
episode: 285, score: 288.0, average_score : 182.56, number of frames: 288, epsilon: 0.2384520680152932
episode: 286, score: 247.0, average_score : 184.88, number of frames: 247, epsilon: 0.23725980767521673
episode: 287, score: 413.0, average_score : 188.87, number of frames: 413, epsilon: 0.23607350863684065
episode: 288, score: 256.0, average_score : 191.32, number of frames: 256, epsilon: 0.23489314109365644
episode: 289, score: 273.0, average_score : 193.97, number of frames: 273, epsilon: 0.23371867538818816
episode: 290, score: 302.0, average_score : 196.88, number of frames: 302, epsilon: 0.23255008201124722
episode: 291, score: 314.0, average_score : 199.91, number of frames: 314, epsilon: 0.231387331601191
episode: 292, score: 377.0, average_score : 203.58, number of frames: 377, epsilon: 0.23023039494318503
episode: 293, score: 285.0, average_score : 206.24, number of frames: 285, epsilon: 0.2290792429684691
episode: 294, score: 384.0, average_score : 209.96, number of frames: 384, epsilon: 0.22793384675362674
episode: 295, score: 376.0, average_score : 213.64, number of frames: 376, epsilon: 0.22679417751985861
episode: 296, score: 205.0, average_score : 215.56, number of frames: 205, epsilon: 0.22566020663225933
episode: 297, score: 494.0, average_score : 220.3, number of frames: 494, epsilon: 0.22453190559909803
episode: 298, score: 204.0, average_score : 222.24, number of frames: 204, epsilon: 0.22340924607110255
episode: 299, score: 264.0, average_score : 224.79, number of frames: 264, epsilon: 0.22229219984074702
episode: 300, score: 250.0, average_score : 227.19, number of frames: 250, epsilon: 0.2211807388415433
episode: 301, score: 254.0, average_score : 229.59, number of frames: 254, epsilon: 0.22007483514733558
episode: 302, score: 288.0, average_score : 232.35, number of frames: 288, epsilon: 0.2189744609715989
episode: 303, score: 262.0, average_score : 234.79, number of frames: 262, epsilon: 0.2178795886667409
episode: 304, score: 252.0, average_score : 236.63, number of frames: 252, epsilon: 0.2167901907234072
episode: 305, score: 287.0, average_score : 238.89, number of frames: 287, epsilon: 0.21570623976979014
episode: 306, score: 266.0, average_score : 240.83, number of frames: 266, epsilon: 0.21462770857094118
episode: 307, score: 315.0, average_score : 243.31, number of frames: 315, epsilon: 0.21355457002808648
episode: 308, score: 270.0, average_score : 244.97, number of frames: 270, epsilon: 0.21248679717794605
episode: 309, score: 260.0, average_score : 246.04, number of frames: 260, epsilon: 0.21142436319205632
episode: 310, score: 375.0, average_score : 248.03, number of frames: 375, epsilon: 0.21036724137609603
episode: 311, score: 344.0, average_score : 250.59, number of frames: 344, epsilon: 0.20931540516921554
episode: 312, score: 223.0, average_score : 250.61, number of frames: 223, epsilon: 0.20826882814336947
episode: 313, score: 208.0, average_score : 250.6, number of frames: 208, epsilon: 0.20722748400265262
episode: 314, score: 232.0, average_score : 251.31, number of frames: 232, epsilon: 0.20619134658263935
episode: 315, score: 268.0, average_score : 252.64, number of frames: 268, epsilon: 0.20516038984972615
episode: 316, score: 201.0, average_score : 253.1, number of frames: 201, epsilon: 0.2041345879004775
episode: 317, score: 387.0, average_score : 254.67, number of frames: 387, epsilon: 0.2031139149609751
episode: 318, score: 338.0, average_score : 256.62, number of frames: 338, epsilon: 0.20209834538617025
episode: 319, score: 273.0, average_score : 257.77, number of frames: 273, epsilon: 0.2010878536592394
episode: 320, score: 243.0, average_score : 259.9, number of frames: 243, epsilon: 0.2000824143909432
episode: 321, score: 277.0, average_score : 261.84, number of frames: 277, epsilon: 0.19908200231898848
episode: 322, score: 340.0, average_score : 264.01, number of frames: 340, epsilon: 0.19808659230739353
episode: 323, score: 261.0, average_score : 265.76, number of frames: 261, epsilon: 0.19709615934585656
episode: 324, score: 272.0, average_score : 268.19, number of frames: 272, epsilon: 0.19611067854912728
episode: 325, score: 306.0, average_score : 270.04, number of frames: 306, epsilon: 0.19513012515638165
episode: 326, score: 500.0, average_score : 272.32, number of frames: 500, epsilon: 0.19415447453059972
episode: 327, score: 232.0, average_score : 273.57, number of frames: 232, epsilon: 0.19318370215794672
episode: 328, score: 340.0, average_score : 275.69, number of frames: 340, epsilon: 0.192217783647157
episode: 329, score: 303.0, average_score : 277.31, number of frames: 303, epsilon: 0.1912566947289212
episode: 330, score: 227.0, average_score : 277.92, number of frames: 227, epsilon: 0.1903004112552766
episode: 331, score: 396.0, average_score : 280.63, number of frames: 396, epsilon: 0.18934890919900021
episode: 332, score: 303.0, average_score : 281.89, number of frames: 303, epsilon: 0.18840216465300522
episode: 333, score: 212.0, average_score : 281.53, number of frames: 212, epsilon: 0.18746015382974018
episode: 334, score: 251.0, average_score : 282.9, number of frames: 251, epsilon: 0.1865228530605915
episode: 335, score: 341.0, average_score : 285.12, number of frames: 341, epsilon: 0.18559023879528855
episode: 336, score: 239.0, average_score : 285.37, number of frames: 239, epsilon: 0.1846622876013121
episode: 337, score: 289.0, average_score : 285.3, number of frames: 289, epsilon: 0.18373897616330553
episode: 338, score: 303.0, average_score : 286.14, number of frames: 303, epsilon: 0.182820281282489
episode: 339, score: 413.0, average_score : 288.85, number of frames: 413, epsilon: 0.18190617987607657
episode: 340, score: 279.0, average_score : 289.62, number of frames: 279, epsilon: 0.18099664897669618
episode: 341, score: 310.0, average_score : 288.46, number of frames: 310, epsilon: 0.1800916657318127
episode: 342, score: 276.0, average_score : 288.91, number of frames: 276, epsilon: 0.17919120740315364
episode: 343, score: 210.0, average_score : 289.15, number of frames: 210, epsilon: 0.17829525136613786
episode: 344, score: 215.0, average_score : 290.78, number of frames: 215, epsilon: 0.17740377510930716
episode: 345, score: 200.0, average_score : 291.15, number of frames: 200, epsilon: 0.17651675623376062
episode: 346, score: 318.0, average_score : 291.6, number of frames: 318, epsilon: 0.1756341724525918
episode: 347, score: 252.0, average_score : 290.38, number of frames: 252, epsilon: 0.17475600159032884
episode: 348, score: 202.0, average_score : 289.38, number of frames: 202, epsilon: 0.17388222158237718
episode: 349, score: 245.0, average_score : 289.66, number of frames: 245, epsilon: 0.1730128104744653
episode: 350, score: 423.0, average_score : 291.0, number of frames: 423, epsilon: 0.17214774642209296
